<?xml version="1.0" encoding="UTF-8" standalone="no"?>
<!-- Created with Inkscape (http://www.inkscape.org/) -->

<svg
   xmlns:dc="http://purl.org/dc/elements/1.1/"
   xmlns:cc="http://creativecommons.org/ns#"
   xmlns:rdf="http://www.w3.org/1999/02/22-rdf-syntax-ns#"
   xmlns:svg="http://www.w3.org/2000/svg"
   xmlns="http://www.w3.org/2000/svg"
   xmlns:sodipodi="http://sodipodi.sourceforge.net/DTD/sodipodi-0.dtd"
   xmlns:inkscape="http://www.inkscape.org/namespaces/inkscape"
   width="210mm"
   height="297mm"
   viewBox="0 0 744.09448819 1052.3622047"
   id="svg2"
   version="1.1"
   inkscape:version="0.91 r13725"
   sodipodi:docname="quadtree.svg"
   inkscape:export-filename="C:\cygwin\home\axel22\workspaces\scala\parprog\statements\barneshut\quadtree.png"
   inkscape:export-xdpi="32.65155"
   inkscape:export-ydpi="32.65155">
  <defs
     id="defs4">
    <marker
       inkscape:stockid="Arrow1Mend"
       orient="auto"
       refY="0.0"
       refX="0.0"
       id="marker15906"
       style="overflow:visible;"
       inkscape:isstock="true">
      <path
         id="path15908"
         d="M 0.0,0.0 L 5.0,-5.0 L -12.5,0.0 L 5.0,5.0 L 0.0,0.0 z "
         style="fill-rule:evenodd;stroke:#000000;stroke-width:1pt;stroke-opacity:1;fill:#000000;fill-opacity:1"
         transform="scale(0.4) rotate(180) translate(10,0)" />
    </marker>
    <marker
       inkscape:isstock="true"
       style="overflow:visible;"
       id="marker15660"
       refX="0.0"
       refY="0.0"
       orient="auto"
       inkscape:stockid="Arrow1Mend"
       inkscape:collect="always">
      <path
         transform="scale(0.4) rotate(180) translate(10,0)"
         style="fill-rule:evenodd;stroke:#000000;stroke-width:1pt;stroke-opacity:1;fill:#000000;fill-opacity:1"
         d="M 0.0,0.0 L 5.0,-5.0 L -12.5,0.0 L 5.0,5.0 L 0.0,0.0 z "
         id="path15662" />
    </marker>
    <marker
       inkscape:isstock="true"
       style="overflow:visible;"
       id="marker15306"
       refX="0.0"
       refY="0.0"
       orient="auto"
       inkscape:stockid="Arrow1Mend">
      <path
         transform="scale(0.4) rotate(180) translate(10,0)"
         style="fill-rule:evenodd;stroke:#000000;stroke-width:1pt;stroke-opacity:1;fill:#000000;fill-opacity:1"
         d="M 0.0,0.0 L 5.0,-5.0 L -12.5,0.0 L 5.0,5.0 L 0.0,0.0 z "
         id="path15308" />
    </marker>
    <marker
       inkscape:stockid="Arrow1Mend"
       orient="auto"
       refY="0.0"
       refX="0.0"
       id="marker15086"
       style="overflow:visible;"
       inkscape:isstock="true">
      <path
         id="path15088"
         d="M 0.0,0.0 L 5.0,-5.0 L -12.5,0.0 L 5.0,5.0 L 0.0,0.0 z "
         style="fill-rule:evenodd;stroke:#000000;stroke-width:1pt;stroke-opacity:1;fill:#000000;fill-opacity:1"
         transform="scale(0.4) rotate(180) translate(10,0)" />
    </marker>
    <marker
       inkscape:stockid="Arrow1Mstart"
       orient="auto"
       refY="0.0"
       refX="0.0"
       id="marker15028"
       style="overflow:visible"
       inkscape:isstock="true">
      <path
         id="path15030"
         d="M 0.0,0.0 L 5.0,-5.0 L -12.5,0.0 L 5.0,5.0 L 0.0,0.0 z "
         style="fill-rule:evenodd;stroke:#000000;stroke-width:1pt;stroke-opacity:1;fill:#000000;fill-opacity:1"
         transform="scale(0.4) translate(10,0)" />
    </marker>
    <marker
       inkscape:stockid="Arrow1Mend"
       orient="auto"
       refY="0.0"
       refX="0.0"
       id="marker12608"
       style="overflow:visible;"
       inkscape:isstock="true"
       inkscape:collect="always">
      <path
         id="path12610"
         d="M 0.0,0.0 L 5.0,-5.0 L -12.5,0.0 L 5.0,5.0 L 0.0,0.0 z "
         style="fill-rule:evenodd;stroke:#000000;stroke-width:1pt;stroke-opacity:1;fill:#000000;fill-opacity:1"
         transform="scale(0.4) rotate(180) translate(10,0)" />
    </marker>
    <marker
       inkscape:stockid="Arrow1Mend"
       orient="auto"
       refY="0.0"
       refX="0.0"
       id="marker11876"
       style="overflow:visible;"
       inkscape:isstock="true">
      <path
         id="path11878"
         d="M 0.0,0.0 L 5.0,-5.0 L -12.5,0.0 L 5.0,5.0 L 0.0,0.0 z "
         style="fill-rule:evenodd;stroke:#000000;stroke-width:1pt;stroke-opacity:1;fill:#000000;fill-opacity:1"
         transform="scale(0.4) rotate(180) translate(10,0)" />
    </marker>
    <marker
       inkscape:stockid="Arrow1Mend"
       orient="auto"
       refY="0.0"
       refX="0.0"
       id="marker10168"
       style="overflow:visible;"
       inkscape:isstock="true">
      <path
         id="path10170"
         d="M 0.0,0.0 L 5.0,-5.0 L -12.5,0.0 L 5.0,5.0 L 0.0,0.0 z "
         style="fill-rule:evenodd;stroke:#000000;stroke-width:1pt;stroke-opacity:1;fill:#000000;fill-opacity:1"
         transform="scale(0.4) rotate(180) translate(10,0)" />
    </marker>
    <marker
       inkscape:isstock="true"
       style="overflow:visible;"
       id="marker7470"
       refX="0.0"
       refY="0.0"
       orient="auto"
       inkscape:stockid="Arrow1Mend">
      <path
         transform="scale(0.4) rotate(180) translate(10,0)"
         style="fill-rule:evenodd;stroke:#000000;stroke-width:1pt;stroke-opacity:1;fill:#000000;fill-opacity:1"
         d="M 0.0,0.0 L 5.0,-5.0 L -12.5,0.0 L 5.0,5.0 L 0.0,0.0 z "
         id="path7472" />
    </marker>
    <marker
       inkscape:stockid="Arrow1Mstart"
       orient="auto"
       refY="0.0"
       refX="0.0"
       id="Arrow1Mstart"
       style="overflow:visible"
       inkscape:isstock="true">
      <path
         id="path4228"
         d="M 0.0,0.0 L 5.0,-5.0 L -12.5,0.0 L 5.0,5.0 L 0.0,0.0 z "
         style="fill-rule:evenodd;stroke:#000000;stroke-width:1pt;stroke-opacity:1;fill:#000000;fill-opacity:1"
         transform="scale(0.4) translate(10,0)" />
    </marker>
    <marker
       inkscape:stockid="Arrow1Mend"
       orient="auto"
       refY="0.0"
       refX="0.0"
       id="Arrow1Mend"
       style="overflow:visible;"
       inkscape:isstock="true">
      <path
         id="path4231"
         d="M 0.0,0.0 L 5.0,-5.0 L -12.5,0.0 L 5.0,5.0 L 0.0,0.0 z "
         style="fill-rule:evenodd;stroke:#000000;stroke-width:1pt;stroke-opacity:1;fill:#000000;fill-opacity:1"
         transform="scale(0.4) rotate(180) translate(10,0)" />
    </marker>
  </defs>
  <sodipodi:namedview
     id="base"
     pagecolor="#ffffff"
     bordercolor="#666666"
     borderopacity="1.0"
     inkscape:pageopacity="0.0"
     inkscape:pageshadow="2"
     inkscape:zoom="0.175"
     inkscape:cx="1095.4717"
     inkscape:cy="135.41975"
     inkscape:document-units="px"
     inkscape:current-layer="layer1"
     showgrid="false"
     inkscape:window-width="1600"
     inkscape:window-height="877"
     inkscape:window-x="-4"
     inkscape:window-y="-4"
     inkscape:window-maximized="1"
     inkscape:snap-text-baseline="false" />
  <metadata
     id="metadata7">
    <rdf:RDF>
      <cc:Work
         rdf:about="">
        <dc:format>image/svg+xml</dc:format>
        <dc:type
           rdf:resource="http://purl.org/dc/dcmitype/StillImage" />
        <dc:title></dc:title>
      </cc:Work>
    </rdf:RDF>
  </metadata>
  <g
     inkscape:label="Layer 1"
     inkscape:groupmode="layer"
     id="layer1">
    <circle
       style="fill:#000000;fill-opacity:1;stroke:#000000;stroke-width:1.00350261;stroke-miterlimit:4;stroke-dasharray:none;stroke-dashoffset:0;stroke-opacity:1"
       id="path4142"
       cx="83.397331"
       cy="151.83354"
       r="13.141105" />
    <circle
       r="13.141105"
       cy="721.93744"
       cx="1136.2686"
       id="circle4144"
       style="fill:#000000;fill-opacity:1;stroke:#000000;stroke-width:1.00350261;stroke-miterlimit:4;stroke-dasharray:none;stroke-dashoffset:0;stroke-opacity:1" />
    <text
       xml:space="preserve"
       style="font-style:normal;font-weight:normal;font-size:40px;line-height:125%;font-family:sans-serif;letter-spacing:0px;word-spacing:0px;fill:#000000;fill-opacity:1;stroke:none;stroke-width:1px;stroke-linecap:butt;stroke-linejoin:miter;stroke-opacity:1"
       x="-17.160173"
       y="189.79347"
       id="text4146"
       sodipodi:linespacing="125%"><tspan
         sodipodi:role="line"
         id="tspan4148"
         x="-17.160173"
         y="189.79347">m<tspan
   style="font-size:64.99999762%;baseline-shift:sub"
   id="tspan4150">A</tspan></tspan></text>
    <text
       sodipodi:linespacing="125%"
       id="text4152"
       y="748.34113"
       x="1165.1003"
       style="font-style:normal;font-weight:normal;font-size:40px;line-height:125%;font-family:sans-serif;letter-spacing:0px;word-spacing:0px;fill:#000000;fill-opacity:1;stroke:none;stroke-width:1px;stroke-linecap:butt;stroke-linejoin:miter;stroke-opacity:1"
       xml:space="preserve"><tspan
         y="748.34113"
         x="1165.1003"
         id="tspan4154"
         sodipodi:role="line">m<tspan
   style="font-size:64.99999762%;baseline-shift:sub"
   id="tspan4158">E</tspan></tspan></text>
    <text
       xml:space="preserve"
       style="font-style:normal;font-weight:normal;font-size:40px;line-height:125%;font-family:sans-serif;letter-spacing:0px;word-spacing:0px;fill:#000000;fill-opacity:1;stroke:none;stroke-width:1px;stroke-linecap:butt;stroke-linejoin:miter;stroke-opacity:1"
       x="1152.1206"
       y="688.21014"
       id="text7888"
       sodipodi:linespacing="125%"><tspan
         sodipodi:role="line"
         id="tspan7890"
         x="1152.1206"
         y="688.21014">(x<tspan
   style="font-size:64.99999762%;baseline-shift:sub"
   id="tspan14976">E</tspan>,y<tspan
   style="font-size:64.99999762%;baseline-shift:sub"
   id="tspan14974">E</tspan>)</tspan></text>
    <circle
       style="fill:#000000;fill-opacity:1;stroke:#000000;stroke-width:1.00350261;stroke-miterlimit:4;stroke-dasharray:none;stroke-dashoffset:0;stroke-opacity:1"
       id="circle8064"
       cx="1028.7399"
       cy="1033.1528"
       r="13.141105" />
    <text
       xml:space="preserve"
       style="font-style:normal;font-weight:normal;font-size:40px;line-height:125%;font-family:sans-serif;letter-spacing:0px;word-spacing:0px;fill:#000000;fill-opacity:1;stroke:none;stroke-width:1px;stroke-linecap:butt;stroke-linejoin:miter;stroke-opacity:1"
       x="1045.5515"
       y="1070.8625"
       id="text8066"
       sodipodi:linespacing="125%"><tspan
         sodipodi:role="line"
         id="tspan8068"
         x="1045.5515"
         y="1070.8625">m<tspan
   id="tspan8070"
   style="font-size:64.99999762%;baseline-shift:sub">C</tspan></tspan></text>
    <circle
       r="13.141105"
       cy="653.45074"
       cx="741.34894"
       id="circle10468"
       style="fill:#000000;fill-opacity:1;stroke:#000000;stroke-width:1.00350261;stroke-miterlimit:4;stroke-dasharray:none;stroke-dashoffset:0;stroke-opacity:1" />
    <text
       sodipodi:linespacing="125%"
       id="text10470"
       y="682.58905"
       x="766.01764"
       style="font-style:normal;font-weight:normal;font-size:40px;line-height:125%;font-family:sans-serif;letter-spacing:0px;word-spacing:0px;fill:#000000;fill-opacity:1;stroke:none;stroke-width:1px;stroke-linecap:butt;stroke-linejoin:miter;stroke-opacity:1"
       xml:space="preserve"><tspan
         y="682.58905"
         x="766.01764"
         id="tspan10472"
         sodipodi:role="line">m<tspan
   style="font-size:64.99999762%;baseline-shift:sub"
   id="tspan10474">D</tspan></tspan></text>
    <text
       xml:space="preserve"
       style="font-style:normal;font-weight:normal;font-size:40px;line-height:125%;font-family:sans-serif;letter-spacing:0px;word-spacing:0px;fill:#000000;fill-opacity:1;stroke:none;stroke-width:1px;stroke-linecap:butt;stroke-linejoin:miter;stroke-opacity:1"
       x="743.56964"
       y="1123.7406"
       id="text10476"
       sodipodi:linespacing="125%"><tspan
         sodipodi:role="line"
         id="tspan10478"
         x="743.56964"
         y="1123.7406">m<tspan
   id="tspan10480"
   style="font-size:64.99999762%;baseline-shift:sub">B</tspan></tspan></text>
    <circle
       r="13.141105"
       cy="1088.6008"
       cx="727.80518"
       id="circle10482"
       style="fill:#000000;fill-opacity:1;stroke:#000000;stroke-width:1.00350261;stroke-miterlimit:4;stroke-dasharray:none;stroke-dashoffset:0;stroke-opacity:1" />
    <text
       xml:space="preserve"
       style="font-style:normal;font-weight:normal;font-size:40px;line-height:125%;font-family:sans-serif;letter-spacing:0px;word-spacing:0px;fill:#000000;fill-opacity:1;stroke:none;stroke-width:1px;stroke-linecap:butt;stroke-linejoin:miter;stroke-opacity:1"
       x="966.52319"
       y="915.48102"
       id="text13406"
       sodipodi:linespacing="125%"><tspan
         sodipodi:role="line"
         id="tspan13408"
         x="966.52319"
         y="915.48102">mass</tspan></text>
    <circle
       r="24.149361"
       cy="902.3703"
       cx="916.56573"
       id="circle13404"
       style="fill:#ffffff;fill-opacity:1;stroke:#000000;stroke-width:5;stroke-miterlimit:4;stroke-dasharray:10, 5;stroke-dashoffset:0;stroke-opacity:1" />
    <circle
       style="fill:#000000;fill-opacity:1;stroke:#000000;stroke-width:1.00350261;stroke-miterlimit:4;stroke-dasharray:none;stroke-dashoffset:0;stroke-opacity:1"
       id="circle14942"
       cx="1019.0909"
       cy="35.033726"
       r="13.141105" />
    <text
       xml:space="preserve"
       style="font-style:normal;font-weight:normal;font-size:40px;line-height:125%;font-family:sans-serif;letter-spacing:0px;word-spacing:0px;fill:#000000;fill-opacity:1;stroke:none;stroke-width:1px;stroke-linecap:butt;stroke-linejoin:miter;stroke-opacity:1"
       x="1029.74"
       y="8.9094801"
       id="text14944"
       sodipodi:linespacing="125%"><tspan
         sodipodi:role="line"
         id="tspan14946"
         x="1029.74"
         y="8.9094801">m<tspan
   id="tspan14948"
   style="font-size:64.99999762%;baseline-shift:sub">F</tspan></tspan></text>
    <rect
       style="fill:none;fill-opacity:1;stroke:#000000;stroke-width:5;stroke-miterlimit:4;stroke-dasharray:none;stroke-dashoffset:0;stroke-opacity:1"
       id="rect14952"
       width="1052.579"
       height="1052.579"
       x="82.832512"
       y="36.148746" />
    <rect
       y="558.17084"
       x="604.85461"
       height="531.79376"
       width="531.79376"
       id="rect14954"
       style="fill:none;fill-opacity:1;stroke:#000000;stroke-width:5;stroke-miterlimit:4;stroke-dasharray:none;stroke-dashoffset:0;stroke-opacity:1" />
    <rect
       style="fill:none;fill-opacity:1;stroke:#000000;stroke-width:5;stroke-miterlimit:4;stroke-dasharray:none;stroke-dashoffset:0;stroke-opacity:1"
       id="rect14956"
       width="521.14429"
       height="521.14429"
       x="84.185783"
       y="37.502014" />
    <rect
       y="-822.98016"
       x="-869.66394"
       height="264.46457"
       width="264.46457"
       id="rect14958"
       style="fill:none;fill-opacity:1;stroke:#000000;stroke-width:5;stroke-miterlimit:4;stroke-dasharray:none;stroke-dashoffset:0;stroke-opacity:1"
       transform="scale(-1,-1)" />
    <rect
       transform="scale(-1,-1)"
       style="fill:none;fill-opacity:1;stroke:#000000;stroke-width:5;stroke-miterlimit:4;stroke-dasharray:none;stroke-dashoffset:0;stroke-opacity:1"
       id="rect14960"
       width="265.25757"
       height="265.25757"
       x="-1134.2817"
       y="-1087.5979" />
    <text
       sodipodi:linespacing="125%"
       id="text14978"
       y="619.51978"
       x="717.755"
       style="font-style:normal;font-weight:normal;font-size:40px;line-height:125%;font-family:sans-serif;letter-spacing:0px;word-spacing:0px;fill:#000000;fill-opacity:1;stroke:none;stroke-width:1px;stroke-linecap:butt;stroke-linejoin:miter;stroke-opacity:1"
       xml:space="preserve"><tspan
         y="619.51978"
         x="717.755"
         id="tspan14980"
         sodipodi:role="line">(x<tspan
   id="tspan14982"
   style="font-size:64.99999762%;baseline-shift:sub">D</tspan>,y<tspan
   id="tspan14984"
   style="font-size:64.99999762%;baseline-shift:sub">D</tspan>)</tspan></text>
    <text
       xml:space="preserve"
       style="font-style:normal;font-weight:normal;font-size:40px;line-height:125%;font-family:sans-serif;letter-spacing:0px;word-spacing:0px;fill:#000000;fill-opacity:1;stroke:none;stroke-width:1px;stroke-linecap:butt;stroke-linejoin:miter;stroke-opacity:1"
       x="704.62305"
       y="1058.9362"
       id="text14986"
       sodipodi:linespacing="125%"><tspan
         sodipodi:role="line"
         id="tspan14988"
         x="704.62305"
         y="1058.9362">(x<tspan
   style="font-size:64.99999762%;baseline-shift:sub"
   id="tspan14990">B</tspan>,y<tspan
   style="font-size:64.99999762%;baseline-shift:sub"
   id="tspan14992">B</tspan>)</tspan></text>
    <text
       sodipodi:linespacing="125%"
       id="text14994"
       y="1004.3879"
       x="991.50635"
       style="font-style:normal;font-weight:normal;font-size:40px;line-height:125%;font-family:sans-serif;letter-spacing:0px;word-spacing:0px;fill:#000000;fill-opacity:1;stroke:none;stroke-width:1px;stroke-linecap:butt;stroke-linejoin:miter;stroke-opacity:1"
       xml:space="preserve"><tspan
         y="1004.3879"
         x="991.50635"
         id="tspan14996"
         sodipodi:role="line">(x<tspan
   id="tspan14998"
   style="font-size:64.99999762%;baseline-shift:sub">C</tspan>,y<tspan
   id="tspan15000"
   style="font-size:64.99999762%;baseline-shift:sub">C</tspan>)</tspan></text>
    <text
       xml:space="preserve"
       style="font-style:normal;font-weight:normal;font-size:40px;line-height:100%;font-family:sans-serif;letter-spacing:0px;word-spacing:0px;fill:#000000;fill-opacity:1;stroke:none;stroke-width:1px;stroke-linecap:butt;stroke-linejoin:miter;stroke-opacity:1"
       x="888.2475"
       y="861.99701"
       id="text15002"
       sodipodi:linespacing="100%"
       inkscape:export-xdpi="34.630001"
       inkscape:export-ydpi="34.630001"><tspan
         sodipodi:role="line"
         id="tspan15004"
         x="888.2475"
         y="861.99701"
         style="font-style:normal;font-variant:normal;font-weight:normal;font-stretch:normal;font-size:30px;line-height:100%;font-family:sans-serif;-inkscape-font-specification:'sans-serif, Normal';text-align:start;writing-mode:lr-tb;text-anchor:start">(mass<tspan
   style="font-size:64.99999762%;baseline-shift:sub"
   id="tspan15020">X</tspan>,mass<tspan
   style="font-size:64.99999762%;baseline-shift:sub"
   id="tspan15016">Y</tspan>)</tspan></text>
    <circle
       style="fill:none;fill-opacity:1;stroke:#000000;stroke-width:5;stroke-miterlimit:4;stroke-dasharray:none;stroke-dashoffset:0;stroke-opacity:1"
       id="path15022"
       cx="-218.31874"
       cy="1531.9603"
       r="74.751289" />
    <path
       style="fill:none;fill-rule:evenodd;stroke:#000000;stroke-width:4.89491892;stroke-linecap:butt;stroke-linejoin:miter;stroke-miterlimit:4;stroke-dasharray:none;stroke-opacity:1;marker-start:url(#marker15028);marker-end:url(#marker15086)"
       d="m 611.75315,1157.4181 516.98645,0"
       id="path15026"
       inkscape:connector-curvature="0" />
    <text
       xml:space="preserve"
       style="font-style:normal;font-weight:normal;font-size:40px;line-height:125%;font-family:sans-serif;letter-spacing:0px;word-spacing:0px;fill:#000000;fill-opacity:1;stroke:none;stroke-width:1px;stroke-linecap:butt;stroke-linejoin:miter;stroke-opacity:1"
       x="825.29462"
       y="1220.0476"
       id="text15252"
       sodipodi:linespacing="125%"><tspan
         sodipodi:role="line"
         id="tspan15254"
         x="825.29462"
         y="1220.0476">size<tspan
   style="font-size:64.99999762%;baseline-shift:sub"
   id="tspan15256">SE</tspan></tspan></text>
    <circle
       r="74.751289"
       cy="1300.5319"
       cx="301.68127"
       id="circle15266"
       style="fill:none;fill-opacity:1;stroke:#000000;stroke-width:5;stroke-miterlimit:4;stroke-dasharray:none;stroke-dashoffset:0;stroke-opacity:1" />
    <circle
       r="74.751289"
       cy="1531.9603"
       cx="130.25279"
       id="circle15268"
       style="fill:none;fill-opacity:1;stroke:#000000;stroke-width:5;stroke-miterlimit:4;stroke-dasharray:none;stroke-dashoffset:0;stroke-opacity:1" />
    <circle
       r="74.751289"
       cy="1531.9603"
       cx="495.96689"
       id="circle15270"
       style="fill:none;fill-opacity:1;stroke:#000000;stroke-width:5;stroke-miterlimit:4;stroke-dasharray:none;stroke-dashoffset:0;stroke-opacity:1" />
    <circle
       style="fill:none;fill-opacity:1;stroke:#000000;stroke-width:5;stroke-miterlimit:4;stroke-dasharray:none;stroke-dashoffset:0;stroke-opacity:1"
       id="circle15272"
       cx="861.68121"
       cy="1531.9603"
       r="74.751289" />
    <text
       xml:space="preserve"
       style="font-style:normal;font-weight:normal;font-size:40px;line-height:125%;font-family:sans-serif;letter-spacing:0px;word-spacing:0px;fill:#000000;fill-opacity:1;stroke:none;stroke-width:1px;stroke-linecap:butt;stroke-linejoin:miter;stroke-opacity:1"
       x="253.18787"
       y="1313.6995"
       id="text15274"
       sodipodi:linespacing="125%"><tspan
         sodipodi:role="line"
         id="tspan15276"
         x="253.18787"
         y="1313.6995">Fork</tspan></text>
    <path
       style="fill:none;fill-rule:evenodd;stroke:#000000;stroke-width:5;stroke-linecap:butt;stroke-linejoin:miter;stroke-miterlimit:4;stroke-dasharray:none;stroke-opacity:1;marker-end:url(#marker12608)"
       d="m 229.18777,1310.8423 -392.8572,165.7143"
       id="path15278"
       inkscape:connector-curvature="0"
       sodipodi:nodetypes="cc" />
    <path
       inkscape:connector-curvature="0"
       id="path15304"
       d="m 256.33057,1357.9852 -85.7143,108.5714"
       style="fill:none;fill-rule:evenodd;stroke:#000000;stroke-width:5;stroke-linecap:butt;stroke-linejoin:miter;stroke-miterlimit:4;stroke-dasharray:none;stroke-opacity:1;marker-end:url(#marker15306)"
       sodipodi:nodetypes="cc" />
    <path
       sodipodi:nodetypes="cc"
       inkscape:connector-curvature="0"
       id="path15658"
       d="m 350.61637,1359.4137 104.2857,108.5715"
       style="fill:none;fill-rule:evenodd;stroke:#000000;stroke-width:5;stroke-linecap:butt;stroke-linejoin:miter;stroke-miterlimit:4;stroke-dasharray:none;stroke-opacity:1;marker-end:url(#marker15660)" />
    <path
       style="fill:none;fill-rule:evenodd;stroke:#000000;stroke-width:5;stroke-linecap:butt;stroke-linejoin:miter;stroke-miterlimit:4;stroke-dasharray:none;stroke-opacity:1;marker-end:url(#marker15906)"
       d="m 376.33067,1312.2709 425.7143,164.2857"
       id="path15904"
       inkscape:connector-curvature="0"
       sodipodi:nodetypes="cc" />
    <text
       xml:space="preserve"
       style="font-style:normal;font-weight:normal;font-size:40px;line-height:125%;font-family:sans-serif;letter-spacing:0px;word-spacing:0px;fill:#000000;fill-opacity:1;stroke:none;stroke-width:1px;stroke-linecap:butt;stroke-linejoin:miter;stroke-opacity:1"
       x="20.037586"
       y="1358.3875"
       id="text16312"
       sodipodi:linespacing="125%"><tspan
         sodipodi:role="line"
         id="tspan16314"
         x="20.037586"
         y="1358.3875">nw</tspan></text>
    <text
       xml:space="preserve"
       style="font-style:normal;font-weight:normal;font-size:40px;line-height:125%;font-family:sans-serif;letter-spacing:0px;word-spacing:0px;fill:#000000;fill-opacity:1;stroke:none;stroke-width:1px;stroke-linecap:butt;stroke-linejoin:miter;stroke-opacity:1"
       x="143.27599"
       y="1409.9053"
       id="text16316"
       sodipodi:linespacing="125%"><tspan
         sodipodi:role="line"
         id="tspan16318"
         x="143.27599"
         y="1409.9053">ne</tspan></text>
    <text
       xml:space="preserve"
       style="font-style:normal;font-weight:normal;font-size:40px;line-height:125%;font-family:sans-serif;letter-spacing:0px;word-spacing:0px;fill:#000000;fill-opacity:1;stroke:none;stroke-width:1px;stroke-linecap:butt;stroke-linejoin:miter;stroke-opacity:1"
       x="412.98669"
       y="1405.8646"
       id="text16320"
       sodipodi:linespacing="125%"><tspan
         sodipodi:role="line"
         id="tspan16322"
         x="412.98669"
         y="1405.8646">sw</tspan></text>
    <text
       xml:space="preserve"
       style="font-style:normal;font-weight:normal;font-size:40px;line-height:125%;font-family:sans-serif;letter-spacing:0px;word-spacing:0px;fill:#000000;fill-opacity:1;stroke:none;stroke-width:1px;stroke-linecap:butt;stroke-linejoin:miter;stroke-opacity:1"
       x="537.23566"
       y="1364.4484"
       id="text16324"
       sodipodi:linespacing="125%"><tspan
         sodipodi:role="line"
         id="tspan16326"
         x="537.23566"
         y="1364.4484">se</tspan></text>
    <text
       sodipodi:linespacing="125%"
       id="text16328"
       y="1544.2709"
       x="430.90222"
       style="font-style:normal;font-weight:normal;font-size:40px;line-height:125%;font-family:sans-serif;letter-spacing:0px;word-spacing:0px;fill:#000000;fill-opacity:1;stroke:none;stroke-width:1px;stroke-linecap:butt;stroke-linejoin:miter;stroke-opacity:1"
       xml:space="preserve"><tspan
         y="1544.2709"
         x="430.90222"
         id="tspan16330"
         sodipodi:role="line">Empty</tspan></text>
    <text
       xml:space="preserve"
       style="font-style:normal;font-weight:normal;font-size:111.40943146px;line-height:125%;font-family:sans-serif;letter-spacing:0px;word-spacing:0px;fill:#000000;fill-opacity:1;stroke:none;stroke-width:1px;stroke-linecap:butt;stroke-linejoin:miter;stroke-opacity:1"
       x="97.928688"
       y="1576.5566"
       id="text16332"
       sodipodi:linespacing="125%"><tspan
         sodipodi:role="line"
         id="tspan16334"
         x="97.928688"
         y="1576.5566">F</tspan></text>
    <text
       sodipodi:linespacing="125%"
       id="text16342"
       y="1574.5566"
       x="-253.49989"
       style="font-style:normal;font-weight:normal;font-size:111.40943146px;line-height:125%;font-family:sans-serif;letter-spacing:0px;word-spacing:0px;fill:#000000;fill-opacity:1;stroke:none;stroke-width:1px;stroke-linecap:butt;stroke-linejoin:miter;stroke-opacity:1"
       xml:space="preserve"><tspan
         y="1574.5566"
         x="-253.49989"
         id="tspan16344"
         sodipodi:role="line">A</tspan></text>
    <text
       sodipodi:linespacing="125%"
       id="text16916"
       y="1542.2709"
       x="813.18781"
       style="font-style:normal;font-weight:normal;font-size:40px;line-height:125%;font-family:sans-serif;letter-spacing:0px;word-spacing:0px;fill:#000000;fill-opacity:1;stroke:none;stroke-width:1px;stroke-linecap:butt;stroke-linejoin:miter;stroke-opacity:1"
       xml:space="preserve"><tspan
         y="1542.2709"
         x="813.18781"
         id="tspan16918"
         sodipodi:role="line">Fork</tspan></text>
    <circle
       r="74.751289"
       cy="1766.2461"
       cx="338.8241"
       id="circle16920"
       style="fill:none;fill-opacity:1;stroke:#000000;stroke-width:5;stroke-miterlimit:4;stroke-dasharray:none;stroke-dashoffset:0;stroke-opacity:1" />
    <circle
       style="fill:none;fill-opacity:1;stroke:#000000;stroke-width:5;stroke-miterlimit:4;stroke-dasharray:none;stroke-dashoffset:0;stroke-opacity:1"
       id="circle16922"
       cx="687.39557"
       cy="1766.2461"
       r="74.751289" />
    <circle
       style="fill:none;fill-opacity:1;stroke:#000000;stroke-width:5;stroke-miterlimit:4;stroke-dasharray:none;stroke-dashoffset:0;stroke-opacity:1"
       id="circle16924"
       cx="1053.1097"
       cy="1766.2461"
       r="74.751289" />
    <circle
       r="74.751289"
       cy="1766.2461"
       cx="1418.8241"
       id="circle16926"
       style="fill:none;fill-opacity:1;stroke:#000000;stroke-width:5;stroke-miterlimit:4;stroke-dasharray:none;stroke-dashoffset:0;stroke-opacity:1" />
    <path
       sodipodi:nodetypes="cc"
       inkscape:connector-curvature="0"
       id="path16928"
       d="m 786.33067,1545.128 -392.8572,165.7143"
       style="fill:none;fill-rule:evenodd;stroke:#000000;stroke-width:5;stroke-linecap:butt;stroke-linejoin:miter;stroke-miterlimit:4;stroke-dasharray:none;stroke-opacity:1;marker-end:url(#marker12608)" />
    <path
       sodipodi:nodetypes="cc"
       style="fill:none;fill-rule:evenodd;stroke:#000000;stroke-width:5;stroke-linecap:butt;stroke-linejoin:miter;stroke-miterlimit:4;stroke-dasharray:none;stroke-opacity:1;marker-end:url(#marker15306)"
       d="m 813.47347,1592.2709 -85.7143,108.5714"
       id="path16930"
       inkscape:connector-curvature="0" />
    <path
       style="fill:none;fill-rule:evenodd;stroke:#000000;stroke-width:5;stroke-linecap:butt;stroke-linejoin:miter;stroke-miterlimit:4;stroke-dasharray:none;stroke-opacity:1;marker-end:url(#marker15660)"
       d="m 907.75927,1593.6994 104.28563,108.5715"
       id="path16932"
       inkscape:connector-curvature="0"
       sodipodi:nodetypes="cc" />
    <path
       sodipodi:nodetypes="cc"
       inkscape:connector-curvature="0"
       id="path16934"
       d="m 933.47357,1546.5566 425.71423,164.2857"
       style="fill:none;fill-rule:evenodd;stroke:#000000;stroke-width:5;stroke-linecap:butt;stroke-linejoin:miter;stroke-miterlimit:4;stroke-dasharray:none;stroke-opacity:1;marker-end:url(#marker15906)" />
    <text
       sodipodi:linespacing="125%"
       id="text16936"
       y="1584.1017"
       x="605.75201"
       style="font-style:normal;font-weight:normal;font-size:40px;line-height:125%;font-family:sans-serif;letter-spacing:0px;word-spacing:0px;fill:#000000;fill-opacity:1;stroke:none;stroke-width:1px;stroke-linecap:butt;stroke-linejoin:miter;stroke-opacity:1"
       xml:space="preserve"><tspan
         y="1584.1017"
         x="605.75201"
         id="tspan16938"
         sodipodi:role="line">nw</tspan></text>
    <text
       sodipodi:linespacing="125%"
       id="text16940"
       y="1644.1909"
       x="700.41876"
       style="font-style:normal;font-weight:normal;font-size:40px;line-height:125%;font-family:sans-serif;letter-spacing:0px;word-spacing:0px;fill:#000000;fill-opacity:1;stroke:none;stroke-width:1px;stroke-linecap:butt;stroke-linejoin:miter;stroke-opacity:1"
       xml:space="preserve"><tspan
         y="1644.1909"
         x="700.41876"
         id="tspan16942"
         sodipodi:role="line">ne</tspan></text>
    <text
       sodipodi:linespacing="125%"
       id="text16944"
       y="1640.1503"
       x="970.12946"
       style="font-style:normal;font-weight:normal;font-size:40px;line-height:125%;font-family:sans-serif;letter-spacing:0px;word-spacing:0px;fill:#000000;fill-opacity:1;stroke:none;stroke-width:1px;stroke-linecap:butt;stroke-linejoin:miter;stroke-opacity:1"
       xml:space="preserve"><tspan
         y="1640.1503"
         x="970.12946"
         id="tspan16946"
         sodipodi:role="line">sw</tspan></text>
    <text
       sodipodi:linespacing="125%"
       id="text16948"
       y="1598.7341"
       x="1094.3785"
       style="font-style:normal;font-weight:normal;font-size:40px;line-height:125%;font-family:sans-serif;letter-spacing:0px;word-spacing:0px;fill:#000000;fill-opacity:1;stroke:none;stroke-width:1px;stroke-linecap:butt;stroke-linejoin:miter;stroke-opacity:1"
       xml:space="preserve"><tspan
         y="1598.7341"
         x="1094.3785"
         id="tspan16950"
         sodipodi:role="line">se</tspan></text>
    <text
       sodipodi:linespacing="125%"
       id="text16956"
       y="1810.8424"
       x="655.07159"
       style="font-style:normal;font-weight:normal;font-size:111.40943146px;line-height:125%;font-family:sans-serif;letter-spacing:0px;word-spacing:0px;fill:#000000;fill-opacity:1;stroke:none;stroke-width:1px;stroke-linecap:butt;stroke-linejoin:miter;stroke-opacity:1"
       xml:space="preserve"><tspan
         y="1810.8424"
         x="655.07159"
         id="tspan16958"
         sodipodi:role="line">E</tspan></text>
    <text
       xml:space="preserve"
       style="font-style:normal;font-weight:normal;font-size:111.40943146px;line-height:125%;font-family:sans-serif;letter-spacing:0px;word-spacing:0px;fill:#000000;fill-opacity:1;stroke:none;stroke-width:1px;stroke-linecap:butt;stroke-linejoin:miter;stroke-opacity:1"
       x="303.64294"
       y="1808.8424"
       id="text16960"
       sodipodi:linespacing="125%"><tspan
         sodipodi:role="line"
         id="tspan16962"
         x="303.64294"
         y="1808.8424">D</tspan></text>
    <text
       xml:space="preserve"
       style="font-style:normal;font-weight:normal;font-size:111.40943146px;line-height:125%;font-family:sans-serif;letter-spacing:0px;word-spacing:0px;fill:#000000;fill-opacity:1;stroke:none;stroke-width:1px;stroke-linecap:butt;stroke-linejoin:miter;stroke-opacity:1"
       x="1383.6429"
       y="1807.9852"
       id="text16968"
       sodipodi:linespacing="125%"><tspan
         sodipodi:role="line"
         id="tspan16970"
         x="1383.6429"
         y="1807.9852">C</tspan></text>
    <text
       sodipodi:linespacing="125%"
       id="text16972"
       y="1808.8424"
       x="1017.9285"
       style="font-style:normal;font-weight:normal;font-size:111.40943146px;line-height:125%;font-family:sans-serif;letter-spacing:0px;word-spacing:0px;fill:#000000;fill-opacity:1;stroke:none;stroke-width:1px;stroke-linecap:butt;stroke-linejoin:miter;stroke-opacity:1"
       xml:space="preserve"><tspan
         y="1808.8424"
         x="1017.9285"
         id="tspan16974"
         sodipodi:role="line">B</tspan></text>
    <text
       xml:space="preserve"
       style="font-style:normal;font-weight:normal;font-size:40px;line-height:125%;font-family:sans-serif;letter-spacing:0px;word-spacing:0px;fill:#000000;fill-opacity:1;stroke:none;stroke-width:1px;stroke-linecap:butt;stroke-linejoin:miter;stroke-opacity:1"
       x="918.23126"
       y="1466.4738"
       id="text16976"
       sodipodi:linespacing="125%"><tspan
         sodipodi:role="line"
         id="tspan16978"
         x="918.23126"
         y="1466.4738">mass = m<tspan
   style="font-size:64.99999762%;baseline-shift:sub"
   id="tspan16980">D</tspan> + m<tspan
   style="font-size:64.99999762%;baseline-shift:sub"
   id="tspan16982">E</tspan> + m<tspan
   style="font-size:64.99999762%;baseline-shift:sub"
   id="tspan16984">B</tspan> + m<tspan
   style="font-size:64.99999762%;baseline-shift:sub"
   id="tspan16986">C</tspan></tspan></text>
  </g>
</svg>
